ID_CatInterest,CatInterest_Name
1,Art
2,Music
3,History
4,Fashion
5,Architecture
6,Sports
7,Yoga
8,Food
9,Photography
10,Nightlife
11,Business
12,Film
13,Technology
14,Outdoors
15,Writing
16,Community Involvement
17,Travel
18,Dance
19,Theatre
20,Reading
